D:\MY-GITLAB\demo-parent\designpattern\src\main\java\org\slf4j\impl\LoggerUtil.java
D:\MY-GITLAB\demo-parent\designpattern\src\main\java\com\yln\demo\designpattern\factory\goodstyle\abstractfactory\pizzastore\TaipeiPizzaStore.java
D:\MY-GITLAB\demo-parent\designpattern\src\main\java\com\yln\demo\designpattern\factory\goodstyle\simplefactory\pizzastore\PizzaStore.java
D:\MY-GITLAB\demo-parent\designpattern\src\main\java\com\yln\demo\designpattern\factory\goodstyle\factorymethod\factory\MexicoPastryFactory.java
D:\MY-GITLAB\demo-parent\designpattern\src\main\java\com\yln\demo\designpattern\strategy\SteamerDuck.java
D:\MY-GITLAB\demo-parent\designpattern\src\main\java\com\yln\demo\DesignpatternApplication.java
D:\MY-GITLAB\demo-parent\designpattern\src\main\java\org\slf4j\impl\StaticLoggerBinder.java
D:\MY-GITLAB\demo-parent\designpattern\src\main\java\org\slf4j\impl\Logger.java
D:\MY-GITLAB\demo-parent\designpattern\src\main\java\com\yln\demo\designpattern\factory\goodstyle\abstractfactory\pizzastore\PizzaStore.java
D:\MY-GITLAB\demo-parent\designpattern\src\main\java\com\yln\demo\designpattern\factory\goodstyle\abstractfactory\factory\ClassicIngredientFactory.java
D:\MY-GITLAB\demo-parent\designpattern\src\main\java\com\yln\demo\designpattern\factory\pizza\Pizza.java
D:\MY-GITLAB\demo-parent\designpattern\src\main\java\com\yln\demo\designpattern\factory\goodstyle\factorymethod\factory\NewYorkSauceFactory.java
D:\MY-GITLAB\demo-parent\designpattern\src\main\java\com\yln\demo\designpattern\factory\goodstyle\simplefactory\factory\SimplePizzaFactory.java
D:\MY-GITLAB\demo-parent\designpattern\src\main\java\com\yln\demo\designpattern\strategy\ClangulaDuck.java
D:\MY-GITLAB\demo-parent\designpattern\src\main\java\com\yln\demo\designpattern\strategy\Duck.java
D:\MY-GITLAB\demo-parent\designpattern\src\main\java\com\yln\demo\designpattern\factory\goodstyle\abstractfactory\factory\IngredientFactory.java
D:\MY-GITLAB\demo-parent\designpattern\src\main\java\com\yln\demo\designpattern\factory\pizza\CheesePizza.java
D:\MY-GITLAB\demo-parent\designpattern\src\main\java\com\yln\demo\designpattern\factory\goodstyle\factorymethod\pizzastore\KaohsiungPizzaStore.java
D:\MY-GITLAB\demo-parent\designpattern\src\main\java\com\yln\demo\designpattern\factory\badstyle\PizzaStore.java
D:\MY-GITLAB\demo-parent\designpattern\src\main\java\org\slf4j\impl\LoggerFactory.java
D:\MY-GITLAB\demo-parent\designpattern\src\main\java\com\yln\demo\designpattern\singleton\Father.java
D:\MY-GITLAB\demo-parent\designpattern\src\main\java\com\yln\demo\designpattern\factory\goodstyle\factorymethod\pizzastore\TaipeiPizzaStore.java
D:\MY-GITLAB\demo-parent\designpattern\src\main\java\com\yln\demo\designpattern\factory\goodstyle\factorymethod\pizzastore\PizzaStore.java
D:\MY-GITLAB\demo-parent\designpattern\src\main\java\com\yln\demo\designpattern\factory\goodstyle\factorymethod\factory\PastryFactory.java
D:\MY-GITLAB\demo-parent\designpattern\src\main\java\com\yln\demo\designpattern\factory\pizza\PepperoniPizza.java
D:\MY-GITLAB\demo-parent\designpattern\src\main\java\org\slf4j\impl\LogVo.java
D:\MY-GITLAB\demo-parent\designpattern\src\main\java\com\yln\demo\designpattern\factory\goodstyle\factorymethod\factory\SauceFactory.java
D:\MY-GITLAB\demo-parent\designpattern\src\main\java\com\yln\demo\designpattern\factory\pizza\GreekPizza.java
